…
    filter, lag

The following objects are masked from ‘package:base’:

    intersect, setdiff, setequal, union

[1] "/home/jernie/"
[1] "Input path: /home/jernie/analysis/input/, output path: /home/jernie/analysis/temp/whitecollar/"
[1] "X23.mrd"     "oikea.juuri" "mis.suht"    "hy.vin"      "keino.tava" 
[1] "You should see above: 'nuort.aikuist' 'yleis.asumistue' 'huomio.toine' 'asia.valitettav' 'raha.jaeta'"
[1] 58939
[1] "Metadata len before dropping nan's: 23289"
[1] "Metadata len after dropping nan's: 21371"
[1] "Metadata len after dropping Åland MPs: 21303"
# A tibble: 112 x 3
   year  sumrep sumfake
   <fct>  <dbl>   <dbl>
 1 1907     115     115
 2 1908     159     159
 3 1909     175     175
 4 1910     130     130
 5 1911     120     120
 6 1912     121     121
 7 1913     121     121
 8 1914     122     122
 9 1915     122     122
10 1916     122     122
# … with 102 more rows
…
